{
  /**
   * Application configuration section
   * http://pm2.keymetrics.io/docs/usage/application-declaration/
   */
  apps : [

    // First application
    {
      name             : "EXPRESS-TEST-WEB",
      script           : "./index.js",
      node_args        : ["--harmony", "--max_old_space_size=500"],
      cwd              : "/home/def/apps/test/current",
      error_file       : "./logs/app.err.log",
      out_file         : "./logs/app.out.log",
      instances        : 4,
      exec_mode        : "cluster",
      env: {
        COMMON_VARIABLE: "true",
        PORT: "3001"
      },
      env_production : {
        NODE_ENV: "production",
        PORT: "3001"
      }
    }

  ],

  /**
   * Deployment section
   * http://pm2.keymetrics.io/docs/usage/deployment/
   */
  deploy : {
    production : {
      user : "def",
      host : "akslv.ru",
      ref  : "origin/master",
      repo : "git@bitbucket.org:A1eksandr/express-test.git",
      path : "/home/def/apps/test",
      "post-deploy" : "npm install && pm2 startOrRestart ecosystem.json --env production"
    }
  }
}
